%YAML 1.1
%TAG !u! tag:unity3d.com,2011:
--- !u!21 &2100000
Material:
  serializedVersion: 6
  m_ObjectHideFlags: 0
  m_PrefabParentObject: {fileID: 0}
  m_PrefabInternal: {fileID: 0}
  m_Name: spiral
  m_Shader: {fileID: 4800000, guid: 4e09b7363f5d7a34497f9d382f0858c1, type: 3}
  m_ShaderKeywords: 
  m_LightmapFlags: 4
  m_EnableInstancingVariants: 0
  m_DoubleSidedGI: 0
  m_CustomRenderQueue: -1
  stringTagMap: {}
  disabledShaderPasses: []
  m_SavedProperties:
    serializedVersion: 3
    m_TexEnvs:
    - _CutoutMask:
        m_Texture: {fileID: 2800000, guid: a96f716fcbdd93b499e97e22c7ced3e6, type: 3}
        m_Scale: {x: 1, y: 1}
        m_Offset: {x: 0, y: 0}
    - _MainTex:
        m_Texture: {fileID: 0}
        m_Scale: {x: 1, y: 1}
        m_Offset: {x: 0, y: 0}
    m_Floats:
    - _BorderThreshold: 0
    - _CutoutThreshold: 0.28
    - _ScrollXSpeed: 0
    m_Colors:
    - _BorderColor: {r: 0.4852941, g: 1, b: 0.9361055, a: 1}
